2 = {
	diplomats = 1
	governing_capacity = 200
	global_autonomy = -0.025
}

3 = {
	governing_capacity = 400
	global_autonomy = -0.05
	max_absolutism = 5
	free_leader_pool = 1
	diplomats = 1
}