# No previous file for Yazoo
owner = G74
controller = G74
add_core = G74
culture = yodhanpir
religion = gods_of_the_taychend
capital = ""

hre = no

base_tax = 4
base_production = 2
base_manpower = 2

trade_goods = grain

1443.1.1 = {	
	owner = G52
	controller = G52
	add_core = G52
}