#75 - Elsass | West Ording

owner = A17
controller = A17
add_core = A17
culture = low_lorentish
religion = regent_court
hre = no
base_tax = 4
base_production = 4
trade_goods = livestock
base_manpower = 3
capital = ""
is_city = yes
fort_15th = yes 





